Mini-Project 2: Data Acquisition – Parker Max
…
[[1]]
# A tibble: 1 × 1
  ``                                                                            
  <chr>                                                                         
1 Largest economies in the world by GDP (nominal) in 2025according to Internati…

[[2]]
# A tibble: 0 × 3
# ℹ 3 variables:
#   .mw-parser-output .legend{page-break-inside:avoid;break-inside:avoid-column}.mw-parser-output .legend-color{display:inline-block;min-width:1.25em;height:1.25em;line-height:1.25;margin:1px 0;text-align:center;border:1px solid black;background-color:transparent;color:black}.mw-parser-output .legend-text{}  > $20 trillion   $10–20 trillion   $5–10 trillion   $1–5 trillion <lgl>,
#   $750 billion – $1 trillion   $500–750 billion   $250–500 billion   $100–250 billion <lgl>,
#   $50–100 billion   $25–50 billion   $5–25 billion   < $5 billion <lgl>

[[3]]
# A tibble: 211 × 7
   `Country/Territory` `IMF[1][12]` `IMF[1][12]` `World Bank[13]`
   <chr>               <chr>        <chr>        <chr>           
 1 Country/Territory   Forecast     Year         Estimate        
 2 World               115,494,312  2025         105,435,540     
 3 United States       30,338,000   2025         27,360,935      
 4 China               19,535,000   [n 1]2025    17,794,782      
 5 Germany             4,922,000    2025         4,456,081       
 6 Japan               4,390,000    2025         4,212,945       
 7 India               4,270,000    2025         3,549,919       
 8 United Kingdom      3,731,000    2025         3,340,032       
 9 France              3,284,000    2025         3,030,904       
10 Italy               2,460,000    2025         2,254,851       
# ℹ 201 more rows
# ℹ 3 more variables: `World Bank[13]` <chr>, `United Nations[14]` <chr>,
#   `United Nations[14]` <chr>
…
[[7]]
# A tibble: 1 × 2
  Nominal                        By country\npast and projected\nper capita\np…¹
  <chr>                          <chr>                                          
1 Purchasing  power parity (PPP) "By country\nfuture estimates\nper capita\nper…
# ℹ abbreviated name: ¹​`By country\npast and projected\nper capita\nper capita`

gdp_table <- html_table(tables, header = TRUE, fill = TRUE)[[3]]  
gdp_table

# A tibble: 211 × 7
   `Country/Territory` `IMF[1][12]` `IMF[1][12]` `World Bank[13]`
   <chr>               <chr>        <chr>        <chr>           
 1 Country/Territory   Forecast     Year         Estimate        
 2 World               115,494,312  2025         105,435,540     
 3 United States       30,338,000   2025         27,360,935      
 4 China               19,535,000   [n 1]2025    17,794,782      
 5 Germany             4,922,000    2025         4,456,081       
 6 Japan               4,390,000    2025         4,212,945       
 7 India               4,270,000    2025         3,549,919       
 8 United Kingdom      3,731,000    2025         3,340,032       
 9 France              3,284,000    2025         3,030,904       
10 Italy               2,460,000    2025         2,254,851       
# ℹ 201 more rows
# ℹ 3 more variables: `World Bank[13]` <chr>, `United Nations[14]` <chr>,
#   `United Nations[14]` <chr>
…
# Step 2: html_nodes()
tables <- html_nodes(pop_page, css = "table") 
tables  # have to guesstimate which table contains our desired info

{xml_nodeset (3)}
[1] <table class="wikitable sortable mw-datatable sort-under static-row-numbe ...
[2] <table class="nowraplinks hlist mw-collapsible autocollapse navbox-inner" ...
[3] <table class="nowraplinks mw-collapsible autocollapse navbox-inner" style ...

# Step 3: html_table()
html_table(tables, header = TRUE, fill = TRUE)    # find the right table

[[1]]
# A tibble: 240 × 6
   Location      Population    `% ofworld` Date     Source (official or …¹ Notes
   <chr>         <chr>         <chr>       <chr>    <chr>                  <chr>
 1 World         8,137,000,000 100%        10 Apr … UN projection[1][3]    ""   
 2 India         1,413,324,000 17.3%       1 Mar 2… Official projection[4] "[b]"
 3 China         1,408,280,000 17.2%       31 Dec … Official estimate[5]   "[c]"
 4 United States 340,110,988   4.2%        1 Jul 2… Official estimate[6]   "[d]"
 5 Indonesia     282,477,584   3.5%        30 Jun … National annual proje… ""   
 6 Pakistan      241,499,431   3.0%        1 Mar 2… 2023 census result[8]  "[e]"
 7 Nigeria       223,800,000   2.7%        1 Jul 2… Official projection[9] ""   
 8 Brazil        212,583,750   2.6%        1 Jul 2… Official projection[1… ""   
 9 Bangladesh    169,828,911   2.1%        14 Jun … 2022 census result[11] "[f]"
10 Russia        146,028,325   1.8%        1 Jan 2… Official estimate[13]  "[g]"
# ℹ 230 more rows
# ℹ abbreviated name: ¹​`Source (official or fromthe United Nations)`
…
[[3]]
# A tibble: 1 × 2
  vteWorld                                                              vteWorld
  <chr>                                                                 <chr>   
1 AfghanistanAlbaniaAlgeriaAndorraAngolaAntigua and BarbudaArgentinaAr… Afghani…

pop_table <- html_table(tables, header = TRUE, fill = TRUE)[[1]]  
pop_table

# A tibble: 240 × 6
   Location      Population    `% ofworld` Date     Source (official or …¹ Notes
   <chr>         <chr>         <chr>       <chr>    <chr>                  <chr>
 1 World         8,137,000,000 100%        10 Apr … UN projection[1][3]    ""   
 2 India         1,413,324,000 17.3%       1 Mar 2… Official projection[4] "[b]"
 3 China         1,408,280,000 17.2%       31 Dec … Official estimate[5]   "[c]"
 4 United States 340,110,988   4.2%        1 Jul 2… Official estimate[6]   "[d]"
 5 Indonesia     282,477,584   3.5%        30 Jun … National annual proje… ""   
 6 Pakistan      241,499,431   3.0%        1 Mar 2… 2023 census result[8]  "[e]"
 7 Nigeria       223,800,000   2.7%        1 Jul 2… Official projection[9] ""   
 8 Brazil        212,583,750   2.6%        1 Jul 2… Official projection[1… ""   
 9 Bangladesh    169,828,911   2.1%        14 Jun … 2022 census result[11] "[f]"
10 Russia        146,028,325   1.8%        1 Jan 2… Official estimate[13]  "[g]"
# ℹ 230 more rows
# ℹ abbreviated name: ¹​`Source (official or fromthe United Nations)`
…
